usrp2/fpga/control_lib/newfifo/fifo_new_tb.vcd
$date
	Thu Mar 19 17:21:11 2009
$end
$version
	Icarus Verilog
$end
$timescale
	1ps
$end
$scope module fifo_new_tb $end
$var wire 1 ! dst_rdy_f36i $end
$var wire 36 " f36_in [35:0] $end
$var wire 36 # i1 [35:0] $end
$var wire 1 $ i1_dr $end
$var wire 1 % i1_sr $end
$var wire 19 & i2 [18:0] $end
$var wire 1 ' i2_dr $end
$var wire 1 ( i2_sr $end
$var wire 19 ) i3 [18:0] $end
$var wire 1 * i3_dr $end
$var wire 1 + i3_sr $end
$var wire 36 , i4 [35:0] $end
$var wire 1 - i4_sr $end
$var wire 8 . ll_data [7:0] $end
$var wire 1 / ll_dst_rdy_n $end
$var wire 1 0 ll_eof_n $end
$var wire 1 1 ll_sof_n $end
$var wire 1 2 ll_src_rdy_n $end
$var reg 1 3 clear $end
$var reg 1 4 clk $end
$var reg 16 5 count [15:0] $end
$var reg 1 6 dst_rdy_f36o $end
$var reg 32 7 f36_data [31:0] $end
$var reg 1 8 f36_eof $end
$var reg 2 9 f36_occ [1:0] $end
$var reg 1 : f36_sof $end
$var reg 1 ; i4_dr $end
$var reg 1 < rst $end
$var reg 1 = src_rdy_f36i $end
$scope module fifo_short1 $end
$var wire 1 > clear $end
$var wire 1 ? clk $end
$var wire 36 @ datain [35:0] $end
$var wire 36 A dataout [35:0] $end
$var wire 1 $ dst_rdy_i $end
$var wire 1 ! dst_rdy_o $end
$var wire 1 B read $end
$var wire 1 C reset $end
$var wire 1 D src_rdy_i $end
$var wire 1 % src_rdy_o $end
$var wire 1 E write $end
$var reg 4 F a [3:0] $end
$var reg 1 G empty $end
$var reg 1 H full $end
$var reg 5 I occupied [4:0] $end
$var reg 5 J space [4:0] $end
$scope begin gen_srl16[0] $end
$scope module srl16e $end
$var wire 1 K A0 $end
$var wire 1 L A1 $end
$var wire 1 M A2 $end
$var wire 1 N A3 $end
$var wire 1 E CE $end
$var wire 1 ? CLK $end
$var wire 1 O D $end
$var wire 1 P Q $end
$var reg 16 Q data [15:0] $end
$upscope $end
$upscope $end
$scope begin gen_srl16[1] $end
$scope module srl16e $end
$var wire 1 R A0 $end
$var wire 1 S A1 $end
$var wire 1 T A2 $end
$var wire 1 U A3 $end
$var wire 1 E CE $end
$var wire 1 ? CLK $end
$var wire 1 V D $end
$var wire 1 W Q $end
$var reg 16 X data [15:0] $end
$upscope $end
$upscope $end
$scope begin gen_srl16[2] $end
$scope module srl16e $end
$var wire 1 Y A0 $end
$var wire 1 Z A1 $end
$var wire 1 [ A2 $end
$var wire 1 \ A3 $end
$var wire 1 E CE $end
$var wire 1 ? CLK $end
$var wire 1 ] D $end
$var wire 1 ^ Q $end
$var reg 16 _ data [15:0] $end
$upscope $end
$upscope $end
$scope begin gen_srl16[3] $end
$scope module srl16e $end
$var wire 1 ` A0 $end
$var wire 1 a A1 $end
$var wire 1 b A2 $end
$var wire 1 c A3 $end
$var wire 1 E CE $end
$var wire 1 ? CLK $end
$var wire 1 d D $end
$var wire 1 e Q $end
$var reg 16 f data [15:0] $end
$upscope $end
$upscope $end
$scope begin gen_srl16[4] $end
$scope module srl16e $end
$var wire 1 g A0 $end
$var wire 1 h A1 $end
$var wire 1 i A2 $end
$var wire 1 j A3 $end
$var wire 1 E CE $end
$var wire 1 ? CLK $end
$var wire 1 k D $end
$var wire 1 l Q $end
$var reg 16 m data [15:0] $end
$upscope $end
$upscope $end
$scope begin gen_srl16[5] $end
$scope module srl16e $end
$var wire 1 n A0 $end
$var wire 1 o A1 $end
$var wire 1 p A2 $end
$var wire 1 q A3 $end
$var wire 1 E CE $end
$var wire 1 ? CLK $end
$var wire 1 r D $end
$var wire 1 s Q $end
$var reg 16 t data [15:0] $end
$upscope $end
$upscope $end
$scope begin gen_srl16[6] $end
$scope module srl16e $end
$var wire 1 u A0 $end
$var wire 1 v A1 $end
$var wire 1 w A2 $end
$var wire 1 x A3 $end
$var wire 1 E CE $end
$var wire 1 ? CLK $end
$var wire 1 y D $end
$var wire 1 z Q $end
$var reg 16 { data [15:0] $end
$upscope $end
$upscope $end
$scope begin gen_srl16[7] $end
$scope module srl16e $end
$var wire 1 | A0 $end
$var wire 1 } A1 $end
$var wire 1 ~ A2 $end
$var wire 1 !" A3 $end
$var wire 1 E CE $end
$var wire 1 ? CLK $end
$var wire 1 "" D $end
$var wire 1 #" Q $end
$var reg 16 $" data [15:0] $end
$upscope $end
$upscope $end
$scope begin gen_srl16[8] $end
$scope module srl16e $end
$var wire 1 %" A0 $end
$var wire 1 &" A1 $end
$var wire 1 '" A2 $end
$var wire 1 (" A3 $end
$var wire 1 E CE $end
$var wire 1 ? CLK $end
$var wire 1 )" D $end
$var wire 1 *" Q $end
$var reg 16 +" data [15:0] $end
$upscope $end
$upscope $end
$scope begin gen_srl16[9] $end
$scope module srl16e $end
$var wire 1 ," A0 $end
$var wire 1 -" A1 $end
$var wire 1 ." A2 $end
$var wire 1 /" A3 $end
$var wire 1 E CE $end
$var wire 1 ? CLK $end
$var wire 1 0" D $end
$var wire 1 1" Q $end
$var reg 16 2" data [15:0] $end
$upscope $end
$upscope $end
$scope begin gen_srl16[10] $end
$scope module srl16e $end
$var wire 1 3" A0 $end
$var wire 1 4" A1 $end
$var wire 1 5" A2 $end
$var wire 1 6" A3 $end
$var wire 1 E CE $end
$var wire 1 ? CLK $end
$var wire 1 7" D $end
$var wire 1 8" Q $end
$var reg 16 9" data [15:0] $end
$upscope $end
$upscope $end
$scope begin gen_srl16[11] $end
$scope module srl16e $end
$var wire 1 :" A0 $end
$var wire 1 ;" A1 $end
$var wire 1 <" A2 $end
$var wire 1 =" A3 $end
$var wire 1 E CE $end
$var wire 1 ? CLK $end
$var wire 1 >" D $end
$var wire 1 ?" Q $end
$var reg 16 @" data [15:0] $end
$upscope $end
$upscope $end
$scope begin gen_srl16[12] $end
$scope module srl16e $end
$var wire 1 A" A0 $end
$var wire 1 B" A1 $end
$var wire 1 C" A2 $end
$var wire 1 D" A3 $end
$var wire 1 E CE $end
$var wire 1 ? CLK $end
$var wire 1 E" D $end
$var wire 1 F" Q $end
$var reg 16 G" data [15:0] $end
$upscope $end
$upscope $end
$scope begin gen_srl16[13] $end
$scope module srl16e $end
$var wire 1 H" A0 $end
$var wire 1 I" A1 $end
$var wire 1 J" A2 $end
$var wire 1 K" A3 $end
$var wire 1 E CE $end
$var wire 1 ? CLK $end
$var wire 1 L" D $end
$var wire 1 M" Q $end
$var reg 16 N" data [15:0] $end
$upscope $end
$upscope $end
$scope begin gen_srl16[14] $end
$scope module srl16e $end
$var wire 1 O" A0 $end
$var wire 1 P" A1 $end
$var wire 1 Q" A2 $end
$var wire 1 R" A3 $end
$var wire 1 E CE $end
$var wire 1 ? CLK $end
$var wire 1 S" D $end
$var wire 1 T" Q $end
$var reg 16 U" data [15:0] $end
$upscope $end
$upscope $end
$scope begin gen_srl16[15] $end
$scope module srl16e $end
$var wire 1 V" A0 $end
$var wire 1 W" A1 $end
$var wire 1 X" A2 $end
$var wire 1 Y" A3 $end
$var wire 1 E CE $end
$var wire 1 ? CLK $end
$var wire 1 Z" D $end
$var wire 1 [" Q $end
$var reg 16 \" data [15:0] $end
$upscope $end
$upscope $end
$scope begin gen_srl16[16] $end
$scope module srl16e $end
$var wire 1 ]" A0 $end
$var wire 1 ^" A1 $end
$var wire 1 _" A2 $end
$var wire 1 `" A3 $end
$var wire 1 E CE $end
$var wire 1 ? CLK $end
$var wire 1 a" D $end
$var wire 1 b" Q $end
$var reg 16 c" data [15:0] $end
$upscope $end
$upscope $end
$scope begin gen_srl16[17] $end
$scope module srl16e $end
$var wire 1 d" A0 $end
$var wire 1 e" A1 $end
$var wire 1 f" A2 $end
$var wire 1 g" A3 $end
$var wire 1 E CE $end
$var wire 1 ? CLK $end
$var wire 1 h" D $end
$var wire 1 i" Q $end
$var reg 16 j" data [15:0] $end
$upscope $end
$upscope $end
$scope begin gen_srl16[18] $end
$scope module srl16e $end
$var wire 1 k" A0 $end
$var wire 1 l" A1 $end
$var wire 1 m" A2 $end
$var wire 1 n" A3 $end
$var wire 1 E CE $end
$var wire 1 ? CLK $end
$var wire 1 o" D $end
$var wire 1 p" Q $end
$var reg 16 q" data [15:0] $end
$upscope $end
$upscope $end
$scope begin gen_srl16[19] $end
$scope module srl16e $end
$var wire 1 r" A0 $end
$var wire 1 s" A1 $end
$var wire 1 t" A2 $end
$var wire 1 u" A3 $end
$var wire 1 E CE $end
$var wire 1 ? CLK $end
$var wire 1 v" D $end
$var wire 1 w" Q $end
$var reg 16 x" data [15:0] $end
$upscope $end
$upscope $end
$scope begin gen_srl16[20] $end
$scope module srl16e $end
$var wire 1 y" A0 $end
$var wire 1 z" A1 $end
$var wire 1 {" A2 $end
$var wire 1 |" A3 $end
$var wire 1 E CE $end
$var wire 1 ? CLK $end
$var wire 1 }" D $end
$var wire 1 ~" Q $end
$var reg 16 !# data [15:0] $end
$upscope $end
$upscope $end
$scope begin gen_srl16[21] $end
$scope module srl16e $end
$var wire 1 "# A0 $end
$var wire 1 ## A1 $end
$var wire 1 $# A2 $end
$var wire 1 %# A3 $end
$var wire 1 E CE $end
$var wire 1 ? CLK $end
$var wire 1 &# D $end
$var wire 1 '# Q $end
$var reg 16 (# data [15:0] $end
$upscope $end
$upscope $end
$scope begin gen_srl16[22] $end
$scope module srl16e $end
$var wire 1 )# A0 $end
$var wire 1 *# A1 $end
$var wire 1 +# A2 $end
$var wire 1 ,# A3 $end
$var wire 1 E CE $end
$var wire 1 ? CLK $end
$var wire 1 -# D $end
$var wire 1 .# Q $end
$var reg 16 /# data [15:0] $end
$upscope $end
$upscope $end
$scope begin gen_srl16[23] $end
$scope module srl16e $end
$var wire 1 0# A0 $end
$var wire 1 1# A1 $end
$var wire 1 2# A2 $end
$var wire 1 3# A3 $end
$var wire 1 E CE $end
$var wire 1 ? CLK $end
$var wire 1 4# D $end
$var wire 1 5# Q $end
$var reg 16 6# data [15:0] $end
$upscope $end
$upscope $end
$scope begin gen_srl16[24] $end
$scope module srl16e $end
$var wire 1 7# A0 $end
$var wire 1 8# A1 $end
$var wire 1 9# A2 $end
$var wire 1 :# A3 $end
$var wire 1 E CE $end
$var wire 1 ? CLK $end
$var wire 1 ;# D $end
$var wire 1 <# Q $end
$var reg 16 =# data [15:0] $end
$upscope $end
$upscope $end
$scope begin gen_srl16[25] $end
$scope module srl16e $end
$var wire 1 ># A0 $end
$var wire 1 ?# A1 $end
$var wire 1 @# A2 $end
$var wire 1 A# A3 $end
$var wire 1 E CE $end
$var wire 1 ? CLK $end
$var wire 1 B# D $end
$var wire 1 C# Q $end
$var reg 16 D# data [15:0] $end
$upscope $end
$upscope $end
$scope begin gen_srl16[26] $end
$scope module srl16e $end
$var wire 1 E# A0 $end
$var wire 1 F# A1 $end
$var wire 1 G# A2 $end
$var wire 1 H# A3 $end
$var wire 1 E CE $end
$var wire 1 ? CLK $end
$var wire 1 I# D $end
$var wire 1 J# Q $end
$var reg 16 K# data [15:0] $end
$upscope $end
$upscope $end
$scope begin gen_srl16[27] $end
$scope module srl16e $end
$var wire 1 L# A0 $end
$var wire 1 M# A1 $end
$var wire 1 N# A2 $end
$var wire 1 O# A3 $end
$var wire 1 E CE $end
$var wire 1 ? CLK $end
$var wire 1 P# D $end
$var wire 1 Q# Q $end
$var reg 16 R# data [15:0] $end
$upscope $end
$upscope $end
$scope begin gen_srl16[28] $end
$scope module srl16e $end
$var wire 1 S# A0 $end
$var wire 1 T# A1 $end
$var wire 1 U# A2 $end
$var wire 1 V# A3 $end
$var wire 1 E CE $end
$var wire 1 ? CLK $end
$var wire 1 W# D $end
$var wire 1 X# Q $end
$var reg 16 Y# data [15:0] $end
$upscope $end
$upscope $end
$scope begin gen_srl16[29] $end
$scope module srl16e $end
$var wire 1 Z# A0 $end
$var wire 1 [# A1 $end
$var wire 1 \# A2 $end
$var wire 1 ]# A3 $end
$var wire 1 E CE $end
$var wire 1 ? CLK $end
$var wire 1 ^# D $end
$var wire 1 _# Q $end
$var reg 16 `# data [15:0] $end
$upscope $end
$upscope $end
$scope begin gen_srl16[30] $end
$scope module srl16e $end
$var wire 1 a# A0 $end
$var wire 1 b# A1 $end
$var wire 1 c# A2 $end
$var wire 1 d# A3 $end
$var wire 1 E CE $end
$var wire 1 ? CLK $end
$var wire 1 e# D $end
$var wire 1 f# Q $end
$var reg 16 g# data [15:0] $end
$upscope $end
$upscope $end
$scope begin gen_srl16[31] $end
$scope module srl16e $end
$var wire 1 h# A0 $end
$var wire 1 i# A1 $end
$var wire 1 j# A2 $end
$var wire 1 k# A3 $end
$var wire 1 E CE $end
$var wire 1 ? CLK $end
$var wire 1 l# D $end
$var wire 1 m# Q $end
$var reg 16 n# data [15:0] $end
$upscope $end
$upscope $end
$scope begin gen_srl16[32] $end
$scope module srl16e $end
$var wire 1 o# A0 $end
$var wire 1 p# A1 $end
$var wire 1 q# A2 $end
$var wire 1 r# A3 $end
$var wire 1 E CE $end
$var wire 1 ? CLK $end
$var wire 1 s# D $end
$var wire 1 t# Q $end
$var reg 16 u# data [15:0] $end
$upscope $end
$upscope $end
$scope begin gen_srl16[33] $end
$scope module srl16e $end
$var wire 1 v# A0 $end
$var wire 1 w# A1 $end
$var wire 1 x# A2 $end
$var wire 1 y# A3 $end
$var wire 1 E CE $end
$var wire 1 ? CLK $end
$var wire 1 z# D $end
$var wire 1 {# Q $end
$var reg 16 |# data [15:0] $end
$upscope $end
$upscope $end
$scope begin gen_srl16[34] $end
$scope module srl16e $end
$var wire 1 }# A0 $end
$var wire 1 ~# A1 $end
$var wire 1 !$ A2 $end
$var wire 1 "$ A3 $end
$var wire 1 E CE $end
$var wire 1 ? CLK $end
$var wire 1 #$ D $end
$var wire 1 $$ Q $end
$var reg 16 %$ data [15:0] $end
$upscope $end
$upscope $end
$scope begin gen_srl16[35] $end
$scope module srl16e $end
$var wire 1 &$ A0 $end
$var wire 1 '$ A1 $end
$var wire 1 ($ A2 $end
$var wire 1 )$ A3 $end
$var wire 1 E CE $end
$var wire 1 ? CLK $end
$var wire 1 *$ D $end
$var wire 1 +$ Q $end
$var reg 16 ,$ data [15:0] $end
$upscope $end
$upscope $end
$upscope $end
$scope module fifo36_to_fifo19 $end
$var wire 1 > clear $end
$var wire 1 ? clk $end
$var wire 19 -$ f19_dataout [18:0] $end
$var wire 1 ' f19_dst_rdy_i $end
$var wire 1 ( f19_src_rdy_o $end
$var wire 1 .$ f19_xfer $end
$var wire 36 /$ f36_datain [35:0] $end
$var wire 1 $ f36_dst_rdy_o $end
$var wire 1 0$ f36_eof $end
$var wire 1 1$ f36_occ $end
$var wire 1 2$ f36_sof $end
$var wire 1 % f36_src_rdy_i $end
$var wire 1 3$ f36_xfer $end
$var wire 1 4$ half_line $end
$var wire 1 C reset $end
$var reg 1 5$ phase $end
$upscope $end
$scope module fifo19_to_ll8 $end
$var wire 1 6$ advance $end
$var wire 1 > clear $end
$var wire 1 ? clk $end
$var wire 19 7$ f19_data [18:0] $end
$var wire 1 ' f19_dst_rdy_o $end
$var wire 1 8$ f19_eof $end
$var wire 1 9$ f19_occ $end
$var wire 1 :$ f19_sof $end
$var wire 1 ( f19_src_rdy_i $end
$var wire 1 ;$ ll_dst_rdy $end
$var wire 1 / ll_dst_rdy_n $end
$var wire 1 <$ ll_eof $end
$var wire 1 0 ll_eof_n $end
$var wire 1 =$ ll_sof $end
$var wire 1 1 ll_sof_n $end
$var wire 1 >$ ll_src_rdy $end
$var wire 1 2 ll_src_rdy_n $end
$var wire 1 C reset $end
$var reg 8 ?$ ll_data [7:0] $end
$var reg 1 @$ state $end
$upscope $end
$scope module ll8_to_fifo19 $end
$var wire 1 > clear $end
$var wire 1 ? clk $end
$var wire 19 A$ f19_data [18:0] $end
$var wire 1 * f19_dst_rdy_i $end
$var wire 1 + f19_src_rdy_o $end
$var wire 8 B$ ll_data [7:0] $end
$var wire 1 C$ ll_dst_rdy $end
$var wire 1 / ll_dst_rdy_n $end
$var wire 1 D$ ll_eof $end
$var wire 1 0 ll_eof_n $end
$var wire 1 E$ ll_sof $end
$var wire 1 1 ll_sof_n $end
$var wire 1 F$ ll_src_rdy $end
$var wire 1 2 ll_src_rdy_n $end
$var wire 1 C reset $end
$var wire 1 G$ xfer_out $end
$var reg 8 H$ dat0 [7:0] $end
$var reg 8 I$ dat1 [7:0] $end
$var reg 1 J$ f19_eof $end
$var reg 1 K$ f19_occ $end
$var reg 1 L$ f19_sof $end
$var reg 2 M$ state [1:0] $end
$upscope $end
$scope module fifo19_to_fifo36 $end
$var wire 1 > clear $end
$var wire 1 ? clk $end
$var wire 19 N$ f19_datain [18:0] $end
$var wire 1 * f19_dst_rdy_o $end
$var wire 1 O$ f19_eof $end
$var wire 1 P$ f19_occ $end
$var wire 1 Q$ f19_sof $end
$var wire 1 + f19_src_rdy_i $end
$var wire 36 R$ f36_dataout [35:0] $end
$var wire 1 S$ f36_dst_rdy_i $end
$var wire 1 - f36_src_rdy_o $end
$var wire 1 C reset $end
$var wire 1 T$ xfer_out $end
$var reg 16 U$ dat0 [15:0] $end
$var reg 16 V$ dat1 [15:0] $end
$var reg 1 W$ f36_eof $end
$var reg 1 X$ f36_occ $end
$var reg 1 Y$ f36_sof $end
$var reg 2 Z$ state [1:0] $end
$upscope $end
$scope task PutPacketInFIFO36 $end
$var reg 32 [$ data_len [31:0] $end
$var reg 32 \$ data_start [31:0] $end
$upscope $end
$scope task ReadFromFIFO36 $end
$upscope $end
$upscope $end
$enddefinitions $end
#0
$dumpvars
bx \$
bx [$
bx Z$
xY$
xX$
xW$
bx V$
bx U$
0T$
0S$
b0xxxxxxxxxxxxxxxxxxxxxxxxxxxxxxxxxxx R$
xQ$
xP$
xO$
bx N$
bx M$
xL$
xK$
xJ$
bx I$
bx H$
xG$
xF$
xE$
xD$
xC$
bx B$
bx A$
x@$
bx ?$
x>$
x=$
x<$
x;$
x:$
x9$
x8$
bx 7$
x6$
x5$
x4$
x3$
x2$
x1$
x0$
bx /$
x.$
bx -$
b0 ,$
x+$
0*$
x)$
x($
x'$
x&$
b0 %$
x$$
0#$
x"$
x!$
x~#
x}#
b0 |#
x{#
0z#
xy#
xx#
xw#
xv#
b0 u#
xt#
0s#
xr#
xq#
xp#
xo#
b0 n#
xm#
0l#
xk#
xj#
xi#
xh#
b0 g#
xf#
0e#
xd#
xc#
xb#
xa#
b0 `#
x_#
0^#
x]#
x\#
x[#
xZ#
b0 Y#
xX#
0W#
xV#
xU#
xT#
xS#
b0 R#
xQ#
0P#
xO#
xN#
xM#
xL#
b0 K#
xJ#
0I#
xH#
xG#
xF#
xE#
b0 D#
xC#
0B#
xA#
x@#
x?#
x>#
b0 =#
x<#
0;#
x:#
x9#
x8#
x7#
b0 6#
x5#
04#
x3#
x2#
x1#
x0#
b0 /#
x.#
0-#
x,#
x+#
x*#
x)#
b0 (#
x'#
0&#
x%#
x$#
x##
x"#
b0 !#
x~"
0}"
x|"
x{"
xz"
xy"
b0 x"
xw"
0v"
xu"
xt"
xs"
xr"
b0 q"
xp"
0o"
xn"
xm"
xl"
xk"
b0 j"
xi"
0h"
xg"
xf"
xe"
xd"
b0 c"
xb"
0a"
x`"
x_"
x^"
x]"
b0 \"
x["
0Z"
xY"
xX"
xW"
xV"
b0 U"
xT"
0S"
xR"
xQ"
xP"
xO"
b0 N"
xM"
0L"
xK"
xJ"
xI"
xH"
b0 G"
xF"
0E"
xD"
xC"
xB"
xA"
b0 @"
x?"
0>"
x="
x<"
x;"
x:"
b0 9"
x8"
07"
x6"
x5"
x4"
x3"
b0 2"
x1"
00"
x/"
x."
x-"
x,"
b0 +"
x*"
0)"
x("
x'"
x&"
x%"
b0 $"
x#"
0""
x!"
x~
x}
x|
b0 {
xz
0y
xx
xw
xv
xu
b0 t
xs
0r
xq
xp
xo
xn
b0 m
xl
0k
xj
xi
xh
xg
b0 f
xe
0d
xc
xb
xa
x`
b0 _
x^
0]
x\
x[
xZ
xY
b0 X
xW
0V
xU
xT
xS
xR
b0 Q
xP
0O
xN
xM
xL
xK
bx J
bx I
xH
xG
bx F
0E
0D
1C
xB
bx A
b0 @
0?
0>
0=
1<
0;
0:
b0 9
08
b0 7
06
bx 5
04
03
x2
x1
x0
x/
bx .
x-
b0xxxxxxxxxxxxxxxxxxxxxxxxxxxxxxxxxxx ,
x+
x*
bx )
x(
x'
bx &
x%
x$
bx #
b0 "
x!
$end
#50000000000000
0D$
10
0E$
0<$
11
08$
09$
0=$
0$
b0 ?$
b0 .
b0 B$
0:$
0'
0F$
04$
01$
b0 &
b0 -$
b0 7$
1;$
0.$
06$
12
03$
0B
02$
00$
0/
1!
0>$
0(
0%
0K
0P
0L
0M
0N
0R
0W
0S
0T
0U
0Y
0^
0Z
0[
0\
0`
0e
0a
0b
0c
0g
0l
0h
0i
0j
0n
0s
0o
0p
0q
0u
0z
0v
0w
0x
0|
0#"
0}
0~
0!"
0%"
0*"
0&"
0'"
0("
0,"
01"
0-"
0."
0/"
03"
08"
04"
05"
06"
0:"
0?"
0;"
0<"
0="
0A"
0F"
0B"
0C"
0D"
0H"
0M"
0I"
0J"
0K"
0O"
0T"
0P"
0Q"
0R"
0V"
0["
0W"
0X"
0Y"
0]"
0b"
0^"
0_"
0`"
0d"
0i"
0e"
0f"
0g"
0k"
0p"
0l"
0m"
0n"
0r"
0w"
0s"
0t"
0u"
0y"
0~"
0z"
0{"
0|"
0"#
0'#
0##
0$#
0%#
0)#
0.#
0*#
0+#
0,#
00#
05#
01#
02#
03#
07#
0<#
08#
09#
0:#
0>#
0C#
0?#
0@#
0A#
0E#
0J#
0F#
0G#
0H#
0L#
0Q#
0M#
0N#
0O#
0S#
0X#
0T#
0U#
0V#
0Z#
0_#
0[#
0\#
0]#
0a#
0f#
0b#
0c#
0d#
0h#
0m#
0i#
0j#
0k#
0o#
0t#
0p#
0q#
0r#
0v#
0{#
0w#
0x#
0y#
0}#
0$$
0~#
0!$
0"$
0&$
0+$
b0 #
b0 A
b0 /$
0'$
0($
0)$
0P$
1C$
0G$
1*
0H
1G
b0 F
b10000 J
b0 I
05$
0@$
0K$
b0xxxxxxxxxxxxxxxxxx )
b0xxxxxxxxxxxxxxxxxx A$
b0xxxxxxxxxxxxxxxxxx N$
b0 M$
0+
0X$
b0xxxxxxxxxxxxxxxxxxxxxxxxxxxxxxxxxx ,
b0xxxxxxxxxxxxxxxxxxxxxxxxxxxxxxxxxx R$
b0 Z$
0-
14
1?
#100000000000000
04
0?
#150000000000000
14
1?
#200000000000000
04
0?
#250000000000000
14
1?
#300000000000000
04
0?
#350000000000000
14
1?
#400000000000000
04
0?
#450000000000000
14
1?
#500000000000000
04
0?
#550000000000000
14
1?
#600000000000000
04
0?
#650000000000000
14
1?
#700000000000000
04
0?
#750000000000000
14
1?
#800000000000000
04
0?
#850000000000000
14
1?
#900000000000000
04
0?
#950000000000000
14
1?
#1000000000000000
04
0?
0<
0C
#1050000000000000
14
1?
#1100000000000000
04
0?
#1150000000000000
1k
1y
1""
1S"
1Z"
1}"
1&#
14#
1^#
1l#
1s#
1E
1:
b10100000101100001100000011010000 7
b110100000101100001100000011010000 "
b110100000101100001100000011010000 @
1=
1D
b100 5
b1100 [$
b10100000101100001100000011010000 \$
14
1?
#1200000000000000
04
0?
#1250000000000000
1F$
16$
02
1>$
1(
1%
1O
1)"
1a"
1;#
0s#
0G
b1111 J
b1 I
b1000 5
b10100001101100011100000111010001 7
0:
b10100001101100011100000111010001 "
b10100001101100011100000111010001 @
14
1?
#1250000000000100
1E$
01
1=$
b10100000 ?$
b10100000 .
b10100000 B$
1:$
b11010000010110000 &
b11010000010110000 -$
b11010000010110000 7$
12$
b1 m
1l
b1 {
1z
b1 $"
1#"
b1 U"
1T"
b1 \"
1["
b1 !#
1~"
b1 (#
1'#
b1 6#
15#
b1 `#
1_#
b1 n#
1m#
b1 u#
1t#
b110100000101100001100000011010000 #
b110100000101100001100000011010000 A
b110100000101100001100000011010000 /$
#1300000000000000
04
0?
#1350000000000000
0E$
0:$
1.$
11
b0 &
b0 -$
b0 7$
1'
0=$
02$
0O
1V
0)"
10"
0a"
1h"
0;#
1B#
1z#
1Q$
0O$
b0 ?$
b0 .
b0 B$
1K
1R
1Y
1`
1g
0l
1n
1u
0z
1|
0#"
1%"
1,"
13"
1:"
1A"
1H"
1O"
0T"
1V"
0["
1]"
1d"
1k"
1r"
1y"
0~"
1"#
0'#
1)#
10#
05#
17#
1>#
1E#
1L#
1S#
1Z#
0_#
1a#
1h#
0m#
1o#
0t#
b0 #
b0 A
b0 /$
1v#
1}#
1&$
18
b10100010101100101100001011010010 7
b1010100010101100101100001011010010 "
b1010100010101100101100001011010010 @
b10100000 H$
b1 M$
0J$
1L$
b110100000xxxxxxxx )
b110100000xxxxxxxx A$
b110100000xxxxxxxx N$
1@$
b10 I
b1110 J
b1 F
14
1?
#1350000000000100
b10110000 ?$
b10110000 .
b10110000 B$
1:$
b11010000010110000 &
b11010000010110000 -$
b11010000010110000 7$
12$
b10 u#
1t#
b11 n#
1m#
b11 `#
1_#
b1 =#
b11 6#
15#
b11 (#
1'#
b11 !#
1~"
b1 c"
b11 \"
1["
b11 U"
1T"
b1 +"
b11 $"
1#"
b11 {
1z
b11 m
1l
b110100000101100001100000011010000 #
b110100000101100001100000011010000 A
b110100000101100001100000011010000 /$
b1 Q
#1351000000000000
1;
1S$
#1400000000000000
04
0?
#1450000000000000
0E$
0.$
11
02$
0:$
0'
0=$
0K
1L
0R
1S
0Y
1Z
0`
1a
0g
1h
0l
0n
1o
0u
1v
0z
0|
1}
0#"
0%"
1&"
0,"
1-"
03"
14"
0:"
1;"
0A"
1B"
0H"
1I"
0O"
1P"
0T"
0V"
1W"
0["
0]"
1^"
0d"
1e"
0k"
1l"
0r"
1s"
0y"
1z"
0~"
0"#
1##
0'#
0)#
1*#
00#
11#
05#
07#
18#
0>#
1?#
0E#
1F#
0L#
1M#
0S#
1T#
0Z#
1[#
0_#
0a#
1b#
0h#
1i#
0m#
0o#
1p#
0t#
b0 #
b0 A
b0 /$
0v#
1w#
0}#
1~#
0&$
1'$
b0 &
b0 -$
b0 7$
b0 ?$
b0 .
b0 B$
1G$
0E
0V
0k
0y
0""
00"
0S"
0Z"
0h"
0}"
0&#
04#
0B#
0^#
0l#
0z#
b10 F
b1101 J
b11 I
15$
0@$
b10 M$
1+
b10110000 I$
b11010000010110000 )
b11010000010110000 A$
b11010000010110000 N$
0=
0D
b0 7
08
b0 "
b0 @
14
1?
#1450000000000100
b11000000 ?$
b11000000 .
b11000000 B$
b1100000011010000 &
b1100000011010000 -$
b1100000011010000 7$
12$
b10 Q
b1 X
b111 m
1l
b111 {
1z
b111 $"
1#"
b10 +"
b1 2"
b111 U"
1T"
b111 \"
1["
b10 c"
b1 j"
b111 !#
1~"
b111 (#
1'#
b111 6#
15#
b10 =#
b1 D#
b111 `#
1_#
b111 n#
1m#
b100 u#
1t#
b110100000101100001100000011010000 #
b110100000101100001100000011010000 A
b110100000101100001100000011010000 /$
b1 |#
#1500000000000000
04
0?
#1550000000000000
13$
1B
1.$
1$
1'
0G$
0Q$
b11010000 ?$
b11010000 .
b11010000 B$
b1010000010110000 U$
b1 Z$
0W$
1Y$
b11010000010110000xxxxxxxxxxxxxxxx ,
b11010000010110000xxxxxxxxxxxxxxxx R$
b11000000 H$
b1 M$
0+
0L$
b1100000010110000 )
b1100000010110000 A$
b1100000010110000 N$
1@$
14
1?
#1600000000000000
04
0?
#1650000000000000
0E$
11
0=$
03$
0B
0.$
02$
0:$
0$
0'
1K
1P
0L
1R
0S
0W
1Y
0Z
1`
0a
1g
0h
1n
0o
1u
0v
1|
0}
1%"
1*"
0&"
1,"
0-"
01"
13"
04"
1:"
0;"
1A"
0B"
1H"
0I"
1O"
0P"
1V"
0W"
1]"
1b"
0^"
1d"
0e"
0i"
1k"
0l"
1r"
0s"
1y"
0z"
1"#
0##
1)#
0*#
10#
01#
17#
1<#
08#
1>#
0?#
0C#
1E#
0F#
1L#
0M#
1S#
0T#
1Z#
0[#
1a#
0b#
1h#
0i#
1o#
0p#
0t#
1v#
0w#
0{#
b10100001101100011100000111010001 #
b10100001101100011100000111010001 A
b10100001101100011100000111010001 /$
1}#
0~#
1&$
0'$
b1010000110110001 &
b1010000110110001 -$
b1010000110110001 7$
b10100001 ?$
b10100001 .
b10100001 B$
1G$
b1 F
b1110 J
b10 I
05$
0@$
b10 M$
1+
b11010000 I$
b1100000011010000 )
b1100000011010000 A$
b1100000011010000 N$
14
1?
#1700000000000000
04
0?
#1750000000000000
1.$
1'
1T$
0G$
b10110001 ?$
b10110001 .
b10110001 B$
b1100000011010000 V$
b110100000101100001100000011010000 ,
b110100000101100001100000011010000 R$
b10 Z$
1-
b10100001 H$
b1010000111010000 )
b1010000111010000 A$
b1010000111010000 N$
b1 M$
0+
1@$
14
1?
#1800000000000000
04
0?
#1850000000000000
0.$
0'
b1100000111010001 &
b1100000111010001 -$
b1100000111010001 7$
b11000001 ?$
b11000001 .
b11000001 B$
1G$
0T$
15$
0@$
b10 M$
1+
b10110001 I$
b1010000110110001 )
b1010000110110001 A$
b1010000110110001 N$
b0 Z$
0-
14
1?
#1900000000000000
04
0?
#1950000000000000
13$
1B
1.$
1$
1'
0G$
b11010001 ?$
b11010001 .
b11010001 B$
b1010000110110001 U$
b1 Z$
0Y$
b10100001101100011100000011010000 ,
b10100001101100011100000011010000 R$
b11000001 H$
b1100000110110001 )
b1100000110110001 A$
b1100000110110001 N$
b1 M$
0+
1@$
14
1?
#2000000000000000
04
0?
